"x"
"1"	"MSTRG.3983"
"2"	"MSTRG.10355"
"3"	"MSTRG.340"
"4"	"MSTRG.4228"
"5"	"gene_11546"
"6"	"gene_5870"
"7"	"MSTRG.1463"
"8"	"MSTRG.1797"
"9"	"MSTRG.12092"
"10"	"MSTRG.10599"
"11"	"gene_11545"
"12"	"gene_9802"
"13"	"MSTRG.6521"
"14"	"gene_7573"
"15"	"MSTRG.11486"
"16"	"MSTRG.9606"
"17"	"gene_11506"
"18"	"gene_11810"
"19"	"gene_301"
"20"	"gene_563"
"21"	"MSTRG.4184"
"22"	"MSTRG.8806"
"23"	"MSTRG.6881"
"24"	"gene_159"
"25"	"MSTRG.9009"
"26"	"gene_2385"
"27"	"MSTRG.11558"
"28"	"gene_8720"
"29"	"gene_8562"
"30"	"MSTRG.5769"
"31"	"MSTRG.10483"
"32"	"MSTRG.10625"
"33"	"gene_10347"
"34"	"gene_11343"
"35"	"gene_2398"
"36"	"gene_292"
"37"	"gene_6760"
"38"	"gene_6777"
"39"	"gene_68"
"40"	"gene_9304"
"41"	"gene_9305"
"42"	"gene_9974"
"43"	"MSTRG.864"
"44"	"MSTRG.10356"
"45"	"MSTRG.4656"
"46"	"MSTRG.10593"
"47"	"MSTRG.6277"
"48"	"MSTRG.5897"
"49"	"MSTRG.6040"
"50"	"gene_2827"
"51"	"MSTRG.131"
"52"	"MSTRG.4092"
"53"	"MSTRG.5895"
"54"	"MSTRG.11090"
"55"	"MSTRG.2370"
"56"	"MSTRG.2428"
"57"	"gene_5212"
"58"	"MSTRG.6546"
"59"	"MSTRG.1493"
"60"	"MSTRG.10835"
"61"	"MSTRG.2110"
"62"	"MSTRG.9596"
"63"	"MSTRG.2360"
"64"	"MSTRG.10891"
"65"	"MSTRG.4226"
"66"	"MSTRG.11723"
"67"	"MSTRG.2027"
"68"	"MSTRG.7820"
"69"	"MSTRG.11285"
"70"	"MSTRG.8991"
"71"	"MSTRG.10311"
"72"	"MSTRG.4182"
"73"	"MSTRG.8965"
"74"	"gene_11798"
"75"	"gene_11807"
"76"	"gene_11880"
"77"	"gene_2541"
"78"	"gene_3341"
"79"	"gene_4256"
"80"	"gene_4693"
"81"	"MSTRG.7876"
"82"	"MSTRG.193"
"83"	"gene_8721"
"84"	"MSTRG.2710"
"85"	"MSTRG.5581"
"86"	"MSTRG.10358"
"87"	"gene_7879"
"88"	"MSTRG.5673"
"89"	"MSTRG.5770"
"90"	"MSTRG.5650"
"91"	"MSTRG.12313"
"92"	"MSTRG.5378"
"93"	"MSTRG.5674"
"94"	"MSTRG.2587"
"95"	"MSTRG.5898"
"96"	"MSTRG.2260"
"97"	"MSTRG.5771"
"98"	"MSTRG.5945"
"99"	"MSTRG.4636"
"100"	"MSTRG.1653"
"101"	"MSTRG.7812"
"102"	"MSTRG.7628"
"103"	"MSTRG.6411"
"104"	"MSTRG.2407"
"105"	"MSTRG.12095"
"106"	"MSTRG.6052"
"107"	"MSTRG.7087"
"108"	"MSTRG.2703"
"109"	"MSTRG.6043"
"110"	"MSTRG.11785"
"111"	"MSTRG.8059"
"112"	"MSTRG.11156"
"113"	"MSTRG.7563"
"114"	"MSTRG.10836"
"115"	"MSTRG.3913"
"116"	"MSTRG.1378"
"117"	"MSTRG.7029"
"118"	"MSTRG.12177"
"119"	"MSTRG.7707"
"120"	"MSTRG.5628"
"121"	"MSTRG.7217"
"122"	"MSTRG.2704"
"123"	"MSTRG.5878"
"124"	"MSTRG.1715"
"125"	"MSTRG.4214"
"126"	"gene_9054"
"127"	"gene_4733"
"128"	"MSTRG.1739"
"129"	"MSTRG.11733"
"130"	"MSTRG.4560"
"131"	"MSTRG.6221"
"132"	"MSTRG.3191"
"133"	"MSTRG.8309"
"134"	"MSTRG.9773"
"135"	"MSTRG.11859"
"136"	"MSTRG.3079"
"137"	"MSTRG.6747"
"138"	"MSTRG.41"
"139"	"MSTRG.3889"
"140"	"MSTRG.12017"
"141"	"MSTRG.11157"
"142"	"MSTRG.1176"
"143"	"MSTRG.1974"
"144"	"MSTRG.7061"
"145"	"MSTRG.8963"
"146"	"MSTRG.10765"
"147"	"MSTRG.4196"
"148"	"MSTRG.6237"
"149"	"MSTRG.8395"
"150"	"MSTRG.1714"
"151"	"MSTRG.2869"
"152"	"MSTRG.5488"
"153"	"MSTRG.8630"
"154"	"MSTRG.7453"
"155"	"gene_7436"
"156"	"MSTRG.9942"
"157"	"MSTRG.9504"
"158"	"MSTRG.3096"
"159"	"MSTRG.317"
"160"	"MSTRG.9270"
"161"	"gene_2151"
"162"	"MSTRG.8550"
"163"	"MSTRG.9489"
"164"	"MSTRG.2812"
"165"	"MSTRG.5398"
"166"	"MSTRG.9874"
"167"	"MSTRG.9621"
"168"	"MSTRG.5332"
"169"	"MSTRG.9503"
"170"	"MSTRG.1023"
"171"	"MSTRG.6424"
"172"	"MSTRG.8562"
"173"	"MSTRG.4079"
"174"	"MSTRG.7703"
"175"	"MSTRG.2992"
"176"	"MSTRG.3076"
"177"	"MSTRG.4980"
"178"	"MSTRG.8266"
"179"	"MSTRG.1743"
"180"	"MSTRG.11448"
"181"	"MSTRG.2008"
"182"	"MSTRG.10555"
"183"	"MSTRG.5670"
"184"	"MSTRG.8807"
"185"	"MSTRG.879"
"186"	"MSTRG.9825"
"187"	"MSTRG.5457"
"188"	"MSTRG.12384"
"189"	"gene_342"
"190"	"MSTRG.5454"
"191"	"MSTRG.12396"
"192"	"MSTRG.6062"
"193"	"gene_11503"
"194"	"MSTRG.11613"
"195"	"MSTRG.2436"
"196"	"MSTRG.5863"
"197"	"MSTRG.11745"
"198"	"MSTRG.11254"
"199"	"MSTRG.6874"
"200"	"MSTRG.5943"
"201"	"MSTRG.719"
"202"	"MSTRG.859"
"203"	"MSTRG.1995"
"204"	"MSTRG.2023"
"205"	"MSTRG.130"
"206"	"gene_10578"
"207"	"MSTRG.1654"
"208"	"MSTRG.9377"
"209"	"MSTRG.3961"
"210"	"MSTRG.1711"
"211"	"MSTRG.3888"
"212"	"MSTRG.5837"
"213"	"MSTRG.1729"
"214"	"MSTRG.9216"
"215"	"MSTRG.6035"
"216"	"MSTRG.11394"
"217"	"gene_7754"
"218"	"MSTRG.7356"
"219"	"MSTRG.10037"
"220"	"MSTRG.6880"
"221"	"gene_9512"
"222"	"MSTRG.8278"
"223"	"MSTRG.3589"
"224"	"MSTRG.11752"
"225"	"MSTRG.8766"
"226"	"MSTRG.7782"
"227"	"MSTRG.6063"
"228"	"MSTRG.10167"
"229"	"MSTRG.3584"
"230"	"MSTRG.12180"
"231"	"MSTRG.12289"
"232"	"MSTRG.4333"
"233"	"gene_4984"
"234"	"MSTRG.9973"
"235"	"MSTRG.288"
"236"	"MSTRG.3133"
"237"	"MSTRG.3368"
"238"	"MSTRG.863"
"239"	"MSTRG.3369"
"240"	"MSTRG.835"
"241"	"MSTRG.11231"
"242"	"MSTRG.6231"
"243"	"MSTRG.10735"
"244"	"MSTRG.12"
"245"	"MSTRG.2583"
"246"	"MSTRG.3224"
"247"	"MSTRG.2522"
"248"	"MSTRG.9789"
"249"	"MSTRG.3165"
"250"	"MSTRG.12402"
"251"	"MSTRG.4143"
"252"	"MSTRG.6600"
"253"	"MSTRG.213"
"254"	"MSTRG.4152"
"255"	"MSTRG.10350"
"256"	"MSTRG.334"
"257"	"MSTRG.4270"
"258"	"MSTRG.1652"
"259"	"MSTRG.10420"
"260"	"MSTRG.2677"
"261"	"MSTRG.2702"
"262"	"MSTRG.6532"
"263"	"MSTRG.8510"
"264"	"MSTRG.2763"
"265"	"MSTRG.8084"
"266"	"MSTRG.5719"
"267"	"MSTRG.8091"
"268"	"MSTRG.11355"
"269"	"MSTRG.1421"
"270"	"MSTRG.2591"
"271"	"MSTRG.836"
"272"	"gene_546"
"273"	"gene_175"
"274"	"MSTRG.3826"
"275"	"MSTRG.9964"
"276"	"MSTRG.8029"
"277"	"gene_7085"
"278"	"gene_11862"
"279"	"gene_3429"
"280"	"gene_3872"
"281"	"MSTRG.1882"
"282"	"MSTRG.11114"
"283"	"MSTRG.6140"
"284"	"MSTRG.2617"
"285"	"MSTRG.10121"
"286"	"MSTRG.4535"
"287"	"MSTRG.11795"
"288"	"MSTRG.9839"
"289"	"MSTRG.5983"
"290"	"MSTRG.5288"
"291"	"MSTRG.4027"
"292"	"MSTRG.10601"
"293"	"MSTRG.3027"
"294"	"MSTRG.4715"
"295"	"MSTRG.5944"
"296"	"MSTRG.7954"
"297"	"MSTRG.1716"
"298"	"MSTRG.11376"
"299"	"MSTRG.5568"
