"x"
"1"	"MSTRG.6993"
"2"	"MSTRG.2028"
"3"	"MSTRG.5373"
"4"	"MSTRG.8675"
"5"	"MSTRG.12011"
"6"	"MSTRG.2994"
"7"	"MSTRG.3871"
"8"	"MSTRG.6013"
"9"	"MSTRG.15"
"10"	"MSTRG.975"
"11"	"MSTRG.10828"
"12"	"MSTRG.7975"
"13"	"MSTRG.250"
"14"	"MSTRG.6706"
"15"	"MSTRG.635"
"16"	"MSTRG.4947"
"17"	"MSTRG.7670"
"18"	"MSTRG.6787"
"19"	"MSTRG.2880"
"20"	"MSTRG.1865"
"21"	"MSTRG.2355"
"22"	"MSTRG.7477"
"23"	"MSTRG.3727"
"24"	"MSTRG.4992"
"25"	"MSTRG.10608"
"26"	"MSTRG.8857"
"27"	"MSTRG.12182"
"28"	"MSTRG.6814"
"29"	"MSTRG.1838"
"30"	"MSTRG.8110"
"31"	"MSTRG.9945"
"32"	"MSTRG.6935"
"33"	"MSTRG.7514"
"34"	"MSTRG.3195"
"35"	"MSTRG.9097"
"36"	"MSTRG.1701"
"37"	"MSTRG.6859"
"38"	"MSTRG.9158"
"39"	"MSTRG.6110"
"40"	"MSTRG.7325"
"41"	"MSTRG.2611"
"42"	"MSTRG.8791"
"43"	"MSTRG.2017"
"44"	"MSTRG.8962"
"45"	"MSTRG.812"
"46"	"MSTRG.3586"
"47"	"MSTRG.5830"
"48"	"MSTRG.365"
"49"	"MSTRG.10609"
"50"	"MSTRG.6911"
