"x"
"1"	"MSTRG.11315"
"2"	"MSTRG.11313"
"3"	"MSTRG.5275"
"4"	"MSTRG.13183"
"5"	"MSTRG.11316"
"6"	"MSTRG.11314"
"7"	"MSTRG.11302"
"8"	"MSTRG.2504"
"9"	"MSTRG.5089"
"10"	"MSTRG.6209"
"11"	"MSTRG.5302"
"12"	"MSTRG.2463"
"13"	"MSTRG.7503"
"14"	"MSTRG.4015"
"15"	"MSTRG.11855"
"16"	"MSTRG.727"
"17"	"MSTRG.3840"
"18"	"MSTRG.5017"
"19"	"MSTRG.5830"
"20"	"MSTRG.3439"
"21"	"MSTRG.1380"
"22"	"MSTRG.4867"
"23"	"MSTRG.7693"
"24"	"MSTRG.8581"
"25"	"MSTRG.2009"
"26"	"MSTRG.12005"
"27"	"MSTRG.13075"
"28"	"MSTRG.6275"
"29"	"MSTRG.615"
"30"	"MSTRG.11918"
"31"	"MSTRG.2075"
"32"	"MSTRG.4421"
"33"	"MSTRG.3228"
"34"	"MSTRG.7820"
"35"	"MSTRG.10072"
"36"	"MSTRG.369"
"37"	"MSTRG.12357"
"38"	"MSTRG.2831"
"39"	"MSTRG.6657"
"40"	"MSTRG.1315"
"41"	"MSTRG.11452"
"42"	"MSTRG.4722"
"43"	"MSTRG.1659"
"44"	"MSTRG.5131"
"45"	"MSTRG.729"
"46"	"MSTRG.10998"
"47"	"MSTRG.11878"
"48"	"MSTRG.4335"
"49"	"MSTRG.6926"
"50"	"MSTRG.8304"
