"x"
"1"	"MSTRG.14281"
"2"	"MSTRG.11542"
"3"	"MSTRG.11972"
"4"	"MSTRG.4450"
"5"	"MSTRG.7377"
"6"	"MSTRG.5711"
"7"	"MSTRG.2"
"8"	"MSTRG.11704"
"9"	"MSTRG.11700"
"10"	"MSTRG.11659"
"11"	"MSTRG.4449"
"12"	"gene_10928"
"13"	"MSTRG.16256"
"14"	"MSTRG.12778"
"15"	"MSTRG.13869"
"16"	"MSTRG.5713"
"17"	"MSTRG.10595"
"18"	"MSTRG.11541"
"19"	"MSTRG.3441"
"20"	"MSTRG.8485"
"21"	"gene_9413"
"22"	"gene_7311"
"23"	"MSTRG.1067"
"24"	"MSTRG.9295"
"25"	"MSTRG.4770"
"26"	"MSTRG.2157"
"27"	"MSTRG.13491"
"28"	"MSTRG.12130"
"29"	"MSTRG.5370"
"30"	"MSTRG.4838"
"31"	"MSTRG.2976"
"32"	"MSTRG.11669"
"33"	"MSTRG.11667"
"34"	"MSTRG.5283"
"35"	"MSTRG.11638"
"36"	"MSTRG.8916"
"37"	"MSTRG.15613"
"38"	"MSTRG.3753"
"39"	"gene_6644"
"40"	"MSTRG.2659"
"41"	"MSTRG.12662"
"42"	"MSTRG.9632"
"43"	"MSTRG.9514"
"44"	"MSTRG.9631"
"45"	"MSTRG.6097"
"46"	"MSTRG.11655"
"47"	"MSTRG.8715"
"48"	"gene_11246"
"49"	"MSTRG.1413"
"50"	"MSTRG.5707"
"51"	"MSTRG.16276"
"52"	"MSTRG.2486"
"53"	"MSTRG.4562"
"54"	"gene_6057"
"55"	"MSTRG.10400"
"56"	"MSTRG.6636"
"57"	"MSTRG.11881"
"58"	"MSTRG.4472"
"59"	"gene_9548"
"60"	"MSTRG.14019"
"61"	"gene_3418"
"62"	"MSTRG.12473"
"63"	"MSTRG.14768"
"64"	"MSTRG.3787"
"65"	"MSTRG.8238"
"66"	"MSTRG.10174"
"67"	"MSTRG.11680"
"68"	"gene_8589"
"69"	"gene_1755"
"70"	"gene_1683"
"71"	"gene_9687"
"72"	"MSTRG.5708"
"73"	"gene_356"
"74"	"gene_7350"
"75"	"gene_12712"
"76"	"MSTRG.9418"
"77"	"gene_4461"
"78"	"MSTRG.10006"
"79"	"MSTRG.9237"
"80"	"gene_467"
"81"	"MSTRG.10875"
"82"	"MSTRG.8879"
"83"	"MSTRG.12765"
"84"	"gene_11706"
"85"	"gene_5401"
"86"	"MSTRG.9350"
"87"	"gene_10079"
"88"	"gene_3107"
"89"	"gene_10785"
"90"	"gene_13191"
"91"	"MSTRG.6648"
"92"	"gene_6245"
"93"	"gene_14136"
"94"	"gene_62"
"95"	"MSTRG.15823"
"96"	"MSTRG.11451"
"97"	"MSTRG.11721"
"98"	"MSTRG.6400"
"99"	"MSTRG.14044"
"100"	"gene_1566"
"101"	"MSTRG.10816"
"102"	"MSTRG.6915"
"103"	"MSTRG.9957"
"104"	"gene_10276"
"105"	"MSTRG.12802"
"106"	"MSTRG.4811"
"107"	"MSTRG.6463"
"108"	"MSTRG.7521"
"109"	"MSTRG.12651"
"110"	"gene_211"
"111"	"MSTRG.3336"
"112"	"gene_12516"
"113"	"gene_13198"
"114"	"MSTRG.5062"
"115"	"MSTRG.13311"
"116"	"MSTRG.6967"
"117"	"MSTRG.9386"
"118"	"gene_7727"
"119"	"gene_13059"
"120"	"gene_8324"
"121"	"gene_2468"
"122"	"gene_9534"
"123"	"gene_9795"
"124"	"gene_12279"
"125"	"gene_7607"
"126"	"gene_5583"
"127"	"gene_682"
"128"	"MSTRG.10980"
"129"	"gene_4531"
"130"	"gene_480"
"131"	"MSTRG.15218"
"132"	"MSTRG.13696"
"133"	"MSTRG.2660"
"134"	"gene_5582"
"135"	"gene_7998"
"136"	"MSTRG.12412"
"137"	"gene_2718"
"138"	"gene_953"
"139"	"gene_11927"
"140"	"gene_10458"
"141"	"gene_13345"
"142"	"gene_10019"
"143"	"gene_2536"
"144"	"MSTRG.1472"
"145"	"gene_11177"
"146"	"gene_3092"
"147"	"gene_7031"
"148"	"gene_870"
"149"	"gene_10651"
"150"	"gene_13076"
"151"	"gene_8055"
"152"	"MSTRG.1766"
"153"	"MSTRG.4801"
"154"	"gene_6558"
"155"	"MSTRG.15929"
"156"	"MSTRG.3041"
"157"	"gene_1269"
"158"	"gene_11560"
"159"	"gene_13519"
"160"	"MSTRG.11597"
"161"	"MSTRG.8172"
"162"	"MSTRG.8275"
"163"	"gene_13912"
"164"	"MSTRG.5709"
"165"	"MSTRG.4624"
"166"	"MSTRG.1729"
"167"	"MSTRG.7325"
"168"	"gene_5768"
"169"	"gene_3644"
"170"	"gene_6741"
"171"	"MSTRG.8290"
"172"	"gene_11414"
"173"	"MSTRG.8855"
"174"	"gene_960"
"175"	"gene_11235"
"176"	"MSTRG.3370"
"177"	"gene_2675"
"178"	"gene_4380"
"179"	"gene_2828"
"180"	"MSTRG.5009"
"181"	"gene_8791"
"182"	"MSTRG.12670"
"183"	"gene_7238"
"184"	"MSTRG.5692"
"185"	"gene_3065"
"186"	"MSTRG.10042"
"187"	"gene_10288"
"188"	"gene_10089"
"189"	"MSTRG.10822"
"190"	"gene_3752"
"191"	"MSTRG.9175"
"192"	"gene_14238"
"193"	"gene_13020"
"194"	"MSTRG.7801"
"195"	"MSTRG.5706"
"196"	"gene_1280"
"197"	"gene_1694"
"198"	"gene_3106"
"199"	"gene_976"
"200"	"gene_961"
"201"	"gene_13754"
"202"	"gene_10655"
"203"	"gene_9399"
"204"	"MSTRG.1950"
"205"	"MSTRG.13835"
"206"	"MSTRG.1689"
"207"	"MSTRG.15403"
"208"	"MSTRG.4285"
"209"	"MSTRG.14822"
"210"	"gene_4439"
"211"	"gene_8817"
"212"	"gene_12321"
"213"	"MSTRG.8926"
"214"	"MSTRG.11942"
"215"	"MSTRG.13559"
"216"	"MSTRG.15654"
"217"	"MSTRG.16370"
"218"	"MSTRG.5778"
"219"	"MSTRG.9602"
"220"	"MSTRG.7027"
"221"	"MSTRG.9727"
"222"	"gene_5259"
"223"	"gene_12252"
"224"	"MSTRG.3705"
"225"	"gene_12330"
"226"	"gene_10783"
"227"	"gene_840"
"228"	"gene_8076"
"229"	"MSTRG.15909"
"230"	"MSTRG.863"
"231"	"gene_163"
"232"	"gene_941"
"233"	"MSTRG.6147"
"234"	"gene_4782"
"235"	"gene_5889"
"236"	"gene_9473"
"237"	"gene_11997"
"238"	"MSTRG.13338"
"239"	"MSTRG.12387"
"240"	"gene_14131"
"241"	"gene_1470"
"242"	"gene_5852"
"243"	"gene_6742"
"244"	"MSTRG.13538"
"245"	"MSTRG.8229"
"246"	"MSTRG.3188"
"247"	"gene_11812"
"248"	"gene_1700"
"249"	"gene_4077"
"250"	"gene_7120"
"251"	"gene_7000"
"252"	"gene_7425"
"253"	"gene_8648"
"254"	"gene_3891"
"255"	"gene_9686"
"256"	"gene_6088"
"257"	"gene_11909"
"258"	"MSTRG.1090"
"259"	"MSTRG.2670"
"260"	"MSTRG.5163"
"261"	"MSTRG.13494"
"262"	"MSTRG.4665"
"263"	"gene_5390"
"264"	"MSTRG.14154"
"265"	"MSTRG.4417"
"266"	"gene_13512"
"267"	"gene_4651"
"268"	"gene_10438"
"269"	"gene_5693"
"270"	"MSTRG.3289"
"271"	"MSTRG.13960"
"272"	"MSTRG.3956"
"273"	"MSTRG.14708"
"274"	"MSTRG.10342"
"275"	"gene_14858"
"276"	"gene_9208"
"277"	"gene_14424"
"278"	"MSTRG.937"
"279"	"gene_9178"
"280"	"gene_1645"
"281"	"MSTRG.15108"
"282"	"gene_3598"
"283"	"MSTRG.6227"
"284"	"gene_11287"
"285"	"MSTRG.4725"
"286"	"MSTRG.14870"
"287"	"gene_10372"
"288"	"MSTRG.7177"
"289"	"MSTRG.6796"
"290"	"gene_9396"
"291"	"MSTRG.3727"
"292"	"gene_11413"
"293"	"MSTRG.828"
"294"	"MSTRG.396"
"295"	"MSTRG.3133"
"296"	"MSTRG.13900"
"297"	"MSTRG.6802"
"298"	"gene_1522"
"299"	"MSTRG.5893"
"300"	"gene_12233"
"301"	"gene_5104"
"302"	"gene_2714"
"303"	"gene_5928"
"304"	"MSTRG.5903"
"305"	"MSTRG.14143"
"306"	"MSTRG.9382"
"307"	"MSTRG.15856"
