"x"
"1"	"MSTRG.9907"
"2"	"MSTRG.818"
"3"	"MSTRG.4168"
"4"	"MSTRG.13188"
"5"	"MSTRG.1512"
"6"	"MSTRG.12757"
"7"	"MSTRG.6672"
"8"	"MSTRG.7624"
"9"	"MSTRG.1174"
"10"	"MSTRG.14931"
"11"	"MSTRG.5462"
"12"	"gene_10784"
"13"	"MSTRG.15065"
"14"	"MSTRG.13497"
"15"	"MSTRG.2767"
"16"	"MSTRG.10405"
"17"	"MSTRG.11789"
"18"	"MSTRG.9905"
"19"	"MSTRG.14107"
"20"	"MSTRG.11362"
"21"	"gene_6596"
"22"	"MSTRG.5287"
"23"	"MSTRG.10231"
"24"	"gene_12626"
"25"	"gene_14562"
"26"	"MSTRG.157"
"27"	"MSTRG.11799"
"28"	"MSTRG.11784"
"29"	"gene_10957"
"30"	"MSTRG.8326"
"31"	"MSTRG.15938"
"32"	"MSTRG.9203"
"33"	"MSTRG.13687"
"34"	"MSTRG.9650"
"35"	"MSTRG.1911"
"36"	"MSTRG.15558"
"37"	"MSTRG.10805"
"38"	"MSTRG.11040"
"39"	"MSTRG.13287"
"40"	"MSTRG.133"
"41"	"gene_4267"
"42"	"gene_13673"
"43"	"gene_10448"
"44"	"gene_11515"
"45"	"MSTRG.6335"
"46"	"MSTRG.5304"
"47"	"MSTRG.15105"
"48"	"MSTRG.1241"
"49"	"gene_9099"
"50"	"gene_728"
"51"	"MSTRG.9579"
"52"	"MSTRG.7966"
"53"	"MSTRG.3825"
"54"	"gene_1380"
"55"	"MSTRG.11827"
"56"	"MSTRG.15678"
"57"	"MSTRG.7632"
"58"	"MSTRG.7168"
"59"	"MSTRG.13943"
"60"	"gene_12604"
"61"	"gene_12832"
"62"	"gene_10371"
"63"	"gene_3568"
"64"	"MSTRG.6407"
"65"	"MSTRG.12680"
"66"	"MSTRG.10806"
"67"	"MSTRG.10808"
"68"	"MSTRG.14385"
"69"	"gene_14478"
"70"	"MSTRG.12161"
"71"	"MSTRG.12736"
"72"	"MSTRG.8327"
"73"	"gene_1360"
"74"	"MSTRG.4481"
"75"	"gene_14423"
"76"	"MSTRG.1881"
"77"	"MSTRG.3532"
"78"	"MSTRG.15762"
"79"	"MSTRG.11641"
"80"	"MSTRG.12640"
"81"	"MSTRG.5073"
"82"	"MSTRG.9892"
"83"	"MSTRG.12519"
"84"	"MSTRG.10820"
"85"	"MSTRG.1108"
"86"	"gene_11514"
"87"	"MSTRG.10638"
"88"	"gene_3071"
"89"	"MSTRG.8752"
"90"	"MSTRG.6938"
"91"	"MSTRG.8235"
"92"	"MSTRG.9906"
"93"	"MSTRG.3833"
"94"	"MSTRG.2085"
"95"	"MSTRG.11766"
"96"	"MSTRG.12159"
"97"	"MSTRG.3448"
"98"	"MSTRG.15972"
"99"	"MSTRG.2819"
"100"	"MSTRG.11408"
"101"	"gene_2336"
"102"	"MSTRG.2036"
"103"	"MSTRG.1533"
"104"	"gene_10006"
"105"	"MSTRG.11525"
"106"	"MSTRG.8177"
"107"	"MSTRG.339"
"108"	"MSTRG.3827"
"109"	"MSTRG.12880"
"110"	"MSTRG.4517"
"111"	"MSTRG.15473"
"112"	"MSTRG.12685"
"113"	"MSTRG.8857"
"114"	"MSTRG.8585"
"115"	"gene_8723"
"116"	"MSTRG.6532"
"117"	"MSTRG.12223"
"118"	"gene_10974"
"119"	"MSTRG.15878"
"120"	"MSTRG.8504"
"121"	"gene_10817"
"122"	"MSTRG.10033"
"123"	"MSTRG.7473"
"124"	"MSTRG.2436"
"125"	"MSTRG.10690"
"126"	"MSTRG.13321"
"127"	"MSTRG.6324"
"128"	"MSTRG.2602"
"129"	"MSTRG.6612"
"130"	"MSTRG.10053"
"131"	"MSTRG.7989"
"132"	"MSTRG.7012"
"133"	"MSTRG.9651"
"134"	"MSTRG.10374"
"135"	"MSTRG.4259"
"136"	"MSTRG.13775"
"137"	"MSTRG.6464"
"138"	"MSTRG.9900"
"139"	"MSTRG.3656"
"140"	"MSTRG.10460"
"141"	"MSTRG.246"
"142"	"MSTRG.10691"
"143"	"MSTRG.11328"
"144"	"MSTRG.2352"
"145"	"MSTRG.3725"
"146"	"MSTRG.16237"
"147"	"MSTRG.5066"
"148"	"MSTRG.14383"
"149"	"gene_8802"
"150"	"gene_6747"
"151"	"MSTRG.15810"
"152"	"gene_13680"
"153"	"MSTRG.1458"
"154"	"gene_5783"
"155"	"MSTRG.16097"
"156"	"MSTRG.1609"
"157"	"gene_11990"
"158"	"gene_13311"
"159"	"MSTRG.15514"
"160"	"MSTRG.4837"
"161"	"MSTRG.12679"
"162"	"MSTRG.2575"
"163"	"MSTRG.15372"
"164"	"MSTRG.8070"
"165"	"MSTRG.10461"
"166"	"MSTRG.10310"
"167"	"MSTRG.6491"
"168"	"MSTRG.4731"
"169"	"MSTRG.3519"
"170"	"MSTRG.4537"
"171"	"MSTRG.14729"
"172"	"MSTRG.14208"
"173"	"MSTRG.11145"
"174"	"MSTRG.2410"
"175"	"MSTRG.8211"
"176"	"MSTRG.7374"
"177"	"MSTRG.15388"
"178"	"MSTRG.4924"
"179"	"MSTRG.13034"
"180"	"MSTRG.5226"
"181"	"MSTRG.6104"
"182"	"MSTRG.2415"
"183"	"MSTRG.7401"
"184"	"MSTRG.14869"
"185"	"MSTRG.12683"
"186"	"MSTRG.2943"
"187"	"MSTRG.7972"
"188"	"MSTRG.15824"
"189"	"MSTRG.13970"
"190"	"MSTRG.10556"
"191"	"MSTRG.5949"
"192"	"MSTRG.1782"
"193"	"MSTRG.3103"
"194"	"MSTRG.3078"
"195"	"MSTRG.11500"
"196"	"MSTRG.9709"
"197"	"MSTRG.8292"
"198"	"MSTRG.12938"
"199"	"MSTRG.11606"
"200"	"MSTRG.6096"
"201"	"MSTRG.4997"
"202"	"MSTRG.10509"
"203"	"MSTRG.11246"
"204"	"MSTRG.10574"
"205"	"MSTRG.3745"
"206"	"MSTRG.12380"
"207"	"MSTRG.16323"
"208"	"MSTRG.13196"
"209"	"MSTRG.8329"
"210"	"MSTRG.14755"
"211"	"MSTRG.16133"
"212"	"MSTRG.13395"
"213"	"MSTRG.7577"
"214"	"MSTRG.11872"
"215"	"MSTRG.9504"
"216"	"MSTRG.16359"
"217"	"MSTRG.11645"
"218"	"MSTRG.8646"
"219"	"MSTRG.3459"
"220"	"MSTRG.6785"
"221"	"MSTRG.9153"
"222"	"MSTRG.2729"
"223"	"MSTRG.9553"
"224"	"MSTRG.5161"
"225"	"MSTRG.2895"
"226"	"MSTRG.8489"
"227"	"MSTRG.643"
"228"	"MSTRG.4607"
"229"	"MSTRG.7969"
"230"	"MSTRG.7818"
"231"	"MSTRG.15966"
"232"	"MSTRG.2331"
"233"	"MSTRG.1908"
"234"	"MSTRG.10423"
"235"	"MSTRG.14712"
"236"	"MSTRG.3922"
"237"	"MSTRG.7649"
"238"	"MSTRG.6745"
"239"	"MSTRG.15275"
"240"	"MSTRG.2488"
"241"	"MSTRG.6537"
"242"	"MSTRG.528"
"243"	"MSTRG.12309"
"244"	"MSTRG.1281"
"245"	"MSTRG.14826"
"246"	"MSTRG.12878"
"247"	"MSTRG.11915"
"248"	"MSTRG.5985"
"249"	"MSTRG.13222"
"250"	"MSTRG.4638"
"251"	"MSTRG.10424"
"252"	"MSTRG.8250"
"253"	"MSTRG.15973"
"254"	"gene_13027"
"255"	"MSTRG.2288"
"256"	"MSTRG.6586"
"257"	"MSTRG.1025"
"258"	"gene_13159"
"259"	"MSTRG.9229"
"260"	"gene_12358"
"261"	"gene_8363"
"262"	"MSTRG.14400"
"263"	"gene_3184"
"264"	"MSTRG.11752"
"265"	"gene_13045"
"266"	"gene_14753"
"267"	"gene_9323"
"268"	"gene_8175"
"269"	"gene_10690"
"270"	"gene_12448"
"271"	"gene_4384"
"272"	"gene_6042"
"273"	"MSTRG.9920"
"274"	"MSTRG.7742"
"275"	"MSTRG.422"
"276"	"MSTRG.11148"
"277"	"MSTRG.16136"
"278"	"MSTRG.409"
"279"	"MSTRG.6049"
"280"	"MSTRG.13205"
"281"	"MSTRG.15993"
"282"	"MSTRG.7749"
"283"	"MSTRG.9394"
"284"	"gene_7632"
"285"	"MSTRG.15085"
"286"	"MSTRG.2079"
"287"	"MSTRG.9411"
"288"	"MSTRG.8876"
"289"	"MSTRG.12262"
"290"	"MSTRG.12893"
"291"	"MSTRG.1051"
"292"	"MSTRG.1144"
"293"	"MSTRG.14764"
"294"	"MSTRG.13737"
"295"	"MSTRG.1402"
"296"	"MSTRG.4441"
"297"	"MSTRG.12560"
"298"	"gene_12833"
"299"	"MSTRG.14492"
"300"	"MSTRG.5173"
"301"	"MSTRG.15377"
"302"	"MSTRG.2550"
"303"	"MSTRG.15389"
"304"	"MSTRG.13149"
"305"	"MSTRG.10430"
"306"	"MSTRG.8475"
"307"	"MSTRG.3810"
"308"	"MSTRG.12258"
"309"	"MSTRG.747"
"310"	"MSTRG.1573"
"311"	"MSTRG.5253"
"312"	"MSTRG.2209"
"313"	"MSTRG.8960"
"314"	"MSTRG.1474"
"315"	"MSTRG.3857"
"316"	"MSTRG.1140"
"317"	"MSTRG.9322"
"318"	"MSTRG.9595"
"319"	"MSTRG.14710"
"320"	"MSTRG.6458"
"321"	"MSTRG.14611"
"322"	"MSTRG.337"
"323"	"MSTRG.3291"
"324"	"MSTRG.9538"
"325"	"MSTRG.9163"
"326"	"MSTRG.10325"
"327"	"MSTRG.5583"
"328"	"MSTRG.3763"
"329"	"MSTRG.15559"
"330"	"MSTRG.13566"
"331"	"MSTRG.14785"
"332"	"MSTRG.1329"
"333"	"MSTRG.8283"
"334"	"MSTRG.5081"
"335"	"MSTRG.13365"
"336"	"MSTRG.10664"
"337"	"MSTRG.6465"
"338"	"MSTRG.12152"
"339"	"MSTRG.10153"
"340"	"MSTRG.9521"
"341"	"MSTRG.13361"
"342"	"MSTRG.11276"
"343"	"MSTRG.4538"
"344"	"MSTRG.7845"
"345"	"MSTRG.12328"
"346"	"MSTRG.15390"
"347"	"MSTRG.14765"
"348"	"MSTRG.11689"
"349"	"MSTRG.5787"
"350"	"MSTRG.13892"
"351"	"MSTRG.12556"
"352"	"MSTRG.11857"
"353"	"MSTRG.12631"
"354"	"MSTRG.14088"
"355"	"MSTRG.7105"
"356"	"MSTRG.7235"
"357"	"MSTRG.13268"
"358"	"MSTRG.131"
"359"	"MSTRG.12378"
"360"	"MSTRG.12433"
"361"	"MSTRG.9833"
"362"	"MSTRG.8797"
"363"	"MSTRG.15543"
"364"	"MSTRG.5220"
"365"	"MSTRG.2914"
"366"	"MSTRG.12311"
"367"	"MSTRG.3622"
"368"	"MSTRG.13643"
"369"	"MSTRG.12892"
"370"	"MSTRG.9964"
"371"	"MSTRG.9472"
"372"	"MSTRG.13660"
"373"	"MSTRG.4326"
"374"	"gene_4425"
"375"	"MSTRG.4452"
"376"	"MSTRG.12304"
"377"	"MSTRG.6195"
"378"	"MSTRG.12688"
"379"	"MSTRG.15722"
"380"	"MSTRG.10615"
"381"	"MSTRG.10094"
"382"	"MSTRG.12701"
"383"	"MSTRG.9236"
"384"	"MSTRG.8441"
"385"	"MSTRG.13336"
"386"	"MSTRG.10300"
"387"	"MSTRG.1814"
"388"	"MSTRG.7638"
"389"	"MSTRG.11692"
"390"	"MSTRG.4820"
"391"	"MSTRG.7814"
"392"	"MSTRG.13114"
"393"	"MSTRG.4153"
"394"	"MSTRG.9328"
"395"	"MSTRG.9207"
"396"	"MSTRG.1574"
"397"	"MSTRG.9188"
"398"	"MSTRG.4350"
"399"	"MSTRG.3221"
"400"	"MSTRG.10034"
"401"	"MSTRG.9571"
"402"	"MSTRG.10156"
"403"	"MSTRG.1455"
"404"	"gene_9401"
"405"	"MSTRG.1549"
"406"	"MSTRG.2632"
"407"	"MSTRG.1155"
"408"	"MSTRG.2823"
"409"	"MSTRG.7793"
"410"	"MSTRG.2328"
"411"	"MSTRG.15157"
"412"	"MSTRG.4609"
"413"	"MSTRG.7787"
"414"	"MSTRG.7234"
"415"	"MSTRG.2828"
"416"	"MSTRG.7766"
"417"	"MSTRG.9832"
"418"	"MSTRG.9919"
"419"	"MSTRG.8933"
"420"	"MSTRG.10369"
"421"	"MSTRG.14620"
"422"	"MSTRG.4040"
"423"	"MSTRG.9269"
"424"	"MSTRG.14998"
"425"	"MSTRG.4723"
"426"	"MSTRG.14069"
"427"	"MSTRG.1559"
"428"	"MSTRG.12446"
"429"	"MSTRG.15268"
"430"	"MSTRG.10662"
"431"	"MSTRG.16265"
"432"	"MSTRG.14944"
"433"	"MSTRG.15075"
"434"	"MSTRG.5742"
"435"	"MSTRG.5421"
"436"	"MSTRG.10476"
"437"	"gene_10022"
"438"	"MSTRG.4687"
"439"	"gene_13536"
"440"	"MSTRG.12308"
"441"	"MSTRG.15170"
"442"	"MSTRG.5435"
"443"	"MSTRG.14681"
"444"	"MSTRG.591"
"445"	"MSTRG.2270"
"446"	"MSTRG.871"
"447"	"MSTRG.2295"
"448"	"MSTRG.16252"
"449"	"MSTRG.3463"
"450"	"MSTRG.7712"
